<svg xmlns="http://www.w3.org/2000/svg" xmlns:xlink="http://www.w3.org/1999/xlink" width="40" height="40" viewBox="0 0 40 40">
  <defs>
    <filter id="Rectangle_17349" x="0" y="0" width="40" height="40" filterUnits="userSpaceOnUse">
      <feOffset dy="3" input="SourceAlpha"/>
      <feGaussianBlur stdDeviation="3" result="blur"/>
      <feFlood flood-opacity="0.161"/>
      <feComposite operator="in" in2="blur"/>
      <feComposite in="SourceGraphic"/>
    </filter>
  </defs>
  <g id="Group_8364" data-name="Group 8364" transform="translate(-321.394 -144)">
    <g transform="matrix(1, 0, 0, 1, 321.39, 144)" filter="url(#Rectangle_17349)">
      <rect id="Rectangle_17349-2" data-name="Rectangle 17349" width="22" height="22" rx="11" transform="translate(9 6)" fill="#1d2284"/>
    </g>
    <path id="Icon_ionic-ios-arrow-back" data-name="Icon ionic-ios-arrow-back" d="M15.354,11.33,11.466,7.445a.734.734,0,1,1,1.04-1.037l4.4,4.4a.733.733,0,0,1,.021,1.012l-4.423,4.432a.734.734,0,0,1-1.04-1.037Z" transform="translate(327.057 149.546)" fill="#fff"/>
  </g>
</svg>
