<svg xmlns="http://www.w3.org/2000/svg" width="26.769" height="26.769" viewBox="0 0 26.769 26.769">
  <path id="Icon_material-message" data-name="Icon material-message" d="M27.092,3H5.677A2.673,2.673,0,0,0,3.013,5.677L3,29.769l5.354-5.354H27.092a2.685,2.685,0,0,0,2.677-2.677V5.677A2.685,2.685,0,0,0,27.092,3ZM24.415,19.062H8.354V16.385H24.415Zm0-4.015H8.354V12.369H24.415Zm0-4.015H8.354V8.354H24.415Z" transform="translate(-3 -3)" fill="#b5bbc6"/>
</svg>
